[api-updater (non-obsolete-error-filter)] 16/02/2022 10:44:07 : Starting C:/Program Files/Unity/Hub/Editor/2020.3.19f1/Editor/Data/Tools/ScriptUpdater/APIUpdater.NonObsoleteApiUpdaterDetector.exe
[api-updater (non-obsolete-error-filter)] 
----------------------------------
jit/startup time      : 692,5314ms
moved types parse time: 41ms
candidates parse time : 0ms
C# parse time         : 212ms
candidates check time : 36ms
console write time    : 0ms

[api-updater (non-obsolete-error-filter)] 16/02/2022 10:50:52 : Starting C:/Program Files/Unity/Hub/Editor/2020.3.19f1/Editor/Data/Tools/ScriptUpdater/APIUpdater.NonObsoleteApiUpdaterDetector.exe
[api-updater (non-obsolete-error-filter)] 
----------------------------------
jit/startup time      : 53,1775ms
moved types parse time: 36ms
candidates parse time : 1ms
C# parse time         : 119ms
candidates check time : 31ms
console write time    : 0ms

[api-updater (non-obsolete-error-filter)] 16/02/2022 10:56:59 : Starting C:/Program Files/Unity/Hub/Editor/2020.3.19f1/Editor/Data/Tools/ScriptUpdater/APIUpdater.NonObsoleteApiUpdaterDetector.exe
[api-updater (non-obsolete-error-filter)] 
----------------------------------
jit/startup time      : 62,4959ms
moved types parse time: 39ms
candidates parse time : 1ms
C# parse time         : 134ms
candidates check time : 37ms
console write time    : 0ms

[api-updater (non-obsolete-error-filter)] 16/02/2022 10:57:40 : Starting C:/Program Files/Unity/Hub/Editor/2020.3.19f1/Editor/Data/Tools/ScriptUpdater/APIUpdater.NonObsoleteApiUpdaterDetector.exe
[api-updater (non-obsolete-error-filter)] 
----------------------------------
jit/startup time      : 58,5517ms
moved types parse time: 38ms
candidates parse time : 1ms
C# parse time         : 133ms
candidates check time : 35ms
console write time    : 0ms

[api-updater (non-obsolete-error-filter)] 16/02/2022 11:01:08 : Starting C:/Program Files/Unity/Hub/Editor/2020.3.19f1/Editor/Data/Tools/ScriptUpdater/APIUpdater.NonObsoleteApiUpdaterDetector.exe
[api-updater (non-obsolete-error-filter)] 
----------------------------------
jit/startup time      : 89,4994ms
moved types parse time: 54ms
candidates parse time : 1ms
C# parse time         : 141ms
candidates check time : 35ms
console write time    : 0ms

[api-updater (non-obsolete-error-filter)] 16/02/2022 11:01:30 : Starting C:/Program Files/Unity/Hub/Editor/2020.3.19f1/Editor/Data/Tools/ScriptUpdater/APIUpdater.NonObsoleteApiUpdaterDetector.exe
[api-updater (non-obsolete-error-filter)] 
----------------------------------
jit/startup time      : 52,5007ms
moved types parse time: 40ms
candidates parse time : 1ms
C# parse time         : 142ms
candidates check time : 33ms
console write time    : 0ms

[api-updater (non-obsolete-error-filter)] 16/02/2022 11:24:21 : Starting C:/Program Files/Unity/Hub/Editor/2020.3.19f1/Editor/Data/Tools/ScriptUpdater/APIUpdater.NonObsoleteApiUpdaterDetector.exe
[api-updater (non-obsolete-error-filter)] 
----------------------------------
jit/startup time      : 57,9987ms
moved types parse time: 40ms
candidates parse time : 0ms
C# parse time         : 144ms
candidates check time : 36ms
console write time    : 0ms

[api-updater (non-obsolete-error-filter)] 16/02/2022 11:40:46 : Starting C:/Program Files/Unity/Hub/Editor/2020.3.19f1/Editor/Data/Tools/ScriptUpdater/APIUpdater.NonObsoleteApiUpdaterDetector.exe
[api-updater (non-obsolete-error-filter)] 
----------------------------------
jit/startup time      : 57,8802ms
moved types parse time: 38ms
candidates parse time : 1ms
C# parse time         : 128ms
candidates check time : 32ms
console write time    : 0ms

[api-updater (non-obsolete-error-filter)] 16/02/2022 11:41:19 : Starting C:/Program Files/Unity/Hub/Editor/2020.3.19f1/Editor/Data/Tools/ScriptUpdater/APIUpdater.NonObsoleteApiUpdaterDetector.exe
[api-updater (non-obsolete-error-filter)] 
----------------------------------
jit/startup time      : 52,9992ms
moved types parse time: 40ms
candidates parse time : 1ms
C# parse time         : 166ms
candidates check time : 35ms
console write time    : 0ms

[api-updater (non-obsolete-error-filter)] 16/02/2022 11:41:50 : Starting C:/Program Files/Unity/Hub/Editor/2020.3.19f1/Editor/Data/Tools/ScriptUpdater/APIUpdater.NonObsoleteApiUpdaterDetector.exe
[api-updater (non-obsolete-error-filter)] 
----------------------------------
jit/startup time      : 58,023ms
moved types parse time: 46ms
candidates parse time : 0ms
C# parse time         : 127ms
candidates check time : 33ms
console write time    : 0ms

[api-updater (non-obsolete-error-filter)] 16/02/2022 11:52:38 : Starting C:/Program Files/Unity/Hub/Editor/2020.3.19f1/Editor/Data/Tools/ScriptUpdater/APIUpdater.NonObsoleteApiUpdaterDetector.exe
[api-updater (non-obsolete-error-filter)] 
----------------------------------
jit/startup time      : 56,7404ms
moved types parse time: 39ms
candidates parse time : 1ms
C# parse time         : 129ms
candidates check time : 36ms
console write time    : 0ms

[api-updater (non-obsolete-error-filter)] 16/02/2022 11:53:27 : Starting C:/Program Files/Unity/Hub/Editor/2020.3.19f1/Editor/Data/Tools/ScriptUpdater/APIUpdater.NonObsoleteApiUpdaterDetector.exe
[api-updater (non-obsolete-error-filter)] 
----------------------------------
jit/startup time      : 59,4675ms
moved types parse time: 39ms
candidates parse time : 0ms
C# parse time         : 128ms
candidates check time : 34ms
console write time    : 0ms

[api-updater (non-obsolete-error-filter)] 17/02/2022 11:54:49 : Starting C:/Program Files/Unity/Hub/Editor/2020.3.19f1/Editor/Data/Tools/ScriptUpdater/APIUpdater.NonObsoleteApiUpdaterDetector.exe
[api-updater (non-obsolete-error-filter)] 
----------------------------------
jit/startup time      : 1746,2968ms
moved types parse time: 44ms
candidates parse time : 1ms
C# parse time         : 385ms
candidates check time : 54ms
console write time    : 0ms

[api-updater (non-obsolete-error-filter)] 22/02/2022 19:58:17 : Starting C:/Program Files/Unity/Hub/Editor/2020.3.19f1/Editor/Data/Tools/ScriptUpdater/APIUpdater.NonObsoleteApiUpdaterDetector.exe
[api-updater (non-obsolete-error-filter)] 
----------------------------------
jit/startup time      : 1517,6385ms
moved types parse time: 52ms
candidates parse time : 1ms
C# parse time         : 245ms
candidates check time : 48ms
console write time    : 0ms

[api-updater (non-obsolete-error-filter)] 22/02/2022 19:58:52 : Starting C:/Program Files/Unity/Hub/Editor/2020.3.19f1/Editor/Data/Tools/ScriptUpdater/APIUpdater.NonObsoleteApiUpdaterDetector.exe
[api-updater (non-obsolete-error-filter)] 
----------------------------------
jit/startup time      : 98,2202ms
moved types parse time: 77ms
candidates parse time : 2ms
C# parse time         : 183ms
candidates check time : 45ms
console write time    : 0ms

[api-updater (non-obsolete-error-filter)] 22/02/2022 19:59:24 : Starting C:/Program Files/Unity/Hub/Editor/2020.3.19f1/Editor/Data/Tools/ScriptUpdater/APIUpdater.NonObsoleteApiUpdaterDetector.exe
[api-updater (non-obsolete-error-filter)] 
----------------------------------
jit/startup time      : 122,0235ms
moved types parse time: 74ms
candidates parse time : 3ms
C# parse time         : 230ms
candidates check time : 53ms
console write time    : 0ms

[api-updater (non-obsolete-error-filter)] 22/02/2022 20:00:29 : Starting C:/Program Files/Unity/Hub/Editor/2020.3.19f1/Editor/Data/Tools/ScriptUpdater/APIUpdater.NonObsoleteApiUpdaterDetector.exe
[api-updater (non-obsolete-error-filter)] 
----------------------------------
jit/startup time      : 116,499ms
moved types parse time: 47ms
candidates parse time : 1ms
C# parse time         : 183ms
candidates check time : 74ms
console write time    : 0ms

[api-updater (non-obsolete-error-filter)] 14/03/2022 10:51:47 : Starting C:/Program Files/Unity/Hub/Editor/2020.3.19f1/Editor/Data/Tools/ScriptUpdater/APIUpdater.NonObsoleteApiUpdaterDetector.exe
[api-updater (non-obsolete-error-filter)] 
----------------------------------
jit/startup time      : 1622,3573ms
moved types parse time: 92ms
candidates parse time : 1ms
C# parse time         : 204ms
candidates check time : 25ms
console write time    : 0ms

[api-updater (non-obsolete-error-filter)] 14/03/2022 11:05:14 : Starting C:/Program Files/Unity/Hub/Editor/2020.3.19f1/Editor/Data/Tools/ScriptUpdater/APIUpdater.NonObsoleteApiUpdaterDetector.exe
[api-updater (non-obsolete-error-filter)] 
----------------------------------
jit/startup time      : 112,0333ms
moved types parse time: 45ms
candidates parse time : 1ms
C# parse time         : 180ms
candidates check time : 26ms
console write time    : 0ms

[api-updater (non-obsolete-error-filter)] 14/03/2022 11:05:35 : Starting C:/Program Files/Unity/Hub/Editor/2020.3.19f1/Editor/Data/Tools/ScriptUpdater/APIUpdater.NonObsoleteApiUpdaterDetector.exe
[api-updater (non-obsolete-error-filter)] 
----------------------------------
jit/startup time      : 77,7906ms
moved types parse time: 87ms
candidates parse time : 1ms
C# parse time         : 200ms
candidates check time : 28ms
console write time    : 0ms

[api-updater (non-obsolete-error-filter)] 14/03/2022 21:20:35 : Starting C:/Program Files/Unity/Hub/Editor/2020.3.19f1/Editor/Data/Tools/ScriptUpdater/APIUpdater.NonObsoleteApiUpdaterDetector.exe
[api-updater (non-obsolete-error-filter)] 
----------------------------------
jit/startup time      : 102,2934ms
moved types parse time: 34ms
candidates parse time : 0ms
C# parse time         : 171ms
candidates check time : 32ms
console write time    : 0ms

[api-updater (non-obsolete-error-filter)] 30/03/2022 12:49:14 : Starting C:/Program Files/Unity/Hub/Editor/2020.3.19f1/Editor/Data/Tools/ScriptUpdater/APIUpdater.NonObsoleteApiUpdaterDetector.exe
[api-updater (non-obsolete-error-filter)] 
----------------------------------
jit/startup time      : 1549,747ms
moved types parse time: 89ms
candidates parse time : 2ms
C# parse time         : 206ms
candidates check time : 40ms
console write time    : 0ms

[api-updater (non-obsolete-error-filter)] 11/04/2022 11:03:57 : Starting C:/Program Files/Unity/Hub/Editor/2020.3.19f1/Editor/Data/Tools/ScriptUpdater/APIUpdater.NonObsoleteApiUpdaterDetector.exe
[api-updater (non-obsolete-error-filter)] 
----------------------------------
jit/startup time      : 438,776ms
moved types parse time: 37ms
candidates parse time : 0ms
C# parse time         : 207ms
candidates check time : 30ms
console write time    : 0ms

[api-updater (non-obsolete-error-filter)] 13/04/2022 18:34:01 : Starting C:/Program Files/Unity/Hub/Editor/2020.3.19f1/Editor/Data/Tools/ScriptUpdater/APIUpdater.NonObsoleteApiUpdaterDetector.exe
[api-updater (non-obsolete-error-filter)] 
----------------------------------
jit/startup time      : 459,4868ms
moved types parse time: 42ms
candidates parse time : 1ms
C# parse time         : 207ms
candidates check time : 35ms
console write time    : 0ms

[api-updater (non-obsolete-error-filter)] 27/04/2022 16:24:46 : Starting C:/Program Files/Unity/Hub/Editor/2020.3.19f1/Editor/Data/Tools/ScriptUpdater/APIUpdater.NonObsoleteApiUpdaterDetector.exe
[api-updater (non-obsolete-error-filter)] 
----------------------------------
jit/startup time      : 494,382ms
moved types parse time: 37ms
candidates parse time : 1ms
C# parse time         : 153ms
candidates check time : 22ms
console write time    : 0ms

[api-updater (non-obsolete-error-filter)] 27/04/2022 16:25:12 : Starting C:/Program Files/Unity/Hub/Editor/2020.3.19f1/Editor/Data/Tools/ScriptUpdater/APIUpdater.NonObsoleteApiUpdaterDetector.exe
[api-updater (non-obsolete-error-filter)] 
----------------------------------
jit/startup time      : 57,8685ms
moved types parse time: 34ms
candidates parse time : 1ms
C# parse time         : 115ms
candidates check time : 22ms
console write time    : 0ms

[api-updater (non-obsolete-error-filter)] 27/04/2022 16:35:06 : Starting C:/Program Files/Unity/Hub/Editor/2020.3.19f1/Editor/Data/Tools/ScriptUpdater/APIUpdater.NonObsoleteApiUpdaterDetector.exe
[api-updater (non-obsolete-error-filter)] 
----------------------------------
jit/startup time      : 54,0821ms
moved types parse time: 36ms
candidates parse time : 1ms
C# parse time         : 131ms
candidates check time : 23ms
console write time    : 0ms

[api-updater (non-obsolete-error-filter)] 27/04/2022 16:58:08 : Starting C:/Program Files/Unity/Hub/Editor/2020.3.19f1/Editor/Data/Tools/ScriptUpdater/APIUpdater.NonObsoleteApiUpdaterDetector.exe
[api-updater (non-obsolete-error-filter)] 
----------------------------------
jit/startup time      : 46,8695ms
moved types parse time: 34ms
candidates parse time : 1ms
C# parse time         : 123ms
candidates check time : 39ms
console write time    : 0ms

[api-updater (non-obsolete-error-filter)] 27/04/2022 16:59:35 : Starting C:/Program Files/Unity/Hub/Editor/2020.3.19f1/Editor/Data/Tools/ScriptUpdater/APIUpdater.NonObsoleteApiUpdaterDetector.exe
[api-updater (non-obsolete-error-filter)] 
----------------------------------
jit/startup time      : 62,5071ms
moved types parse time: 41ms
candidates parse time : 1ms
C# parse time         : 137ms
candidates check time : 44ms
console write time    : 0ms

[api-updater (non-obsolete-error-filter)] 27/04/2022 16:59:59 : Starting C:/Program Files/Unity/Hub/Editor/2020.3.19f1/Editor/Data/Tools/ScriptUpdater/APIUpdater.NonObsoleteApiUpdaterDetector.exe
[api-updater (non-obsolete-error-filter)] 
----------------------------------
jit/startup time      : 46,8865ms
moved types parse time: 37ms
candidates parse time : 0ms
C# parse time         : 140ms
candidates check time : 41ms
console write time    : 0ms

[api-updater (non-obsolete-error-filter)] 27/04/2022 17:00:13 : Starting C:/Program Files/Unity/Hub/Editor/2020.3.19f1/Editor/Data/Tools/ScriptUpdater/APIUpdater.NonObsoleteApiUpdaterDetector.exe
[api-updater (non-obsolete-error-filter)] 
----------------------------------
jit/startup time      : 46,8446ms
moved types parse time: 39ms
candidates parse time : 2ms
C# parse time         : 139ms
candidates check time : 29ms
console write time    : 0ms

[api-updater (non-obsolete-error-filter)] 27/04/2022 17:02:03 : Starting C:/Program Files/Unity/Hub/Editor/2020.3.19f1/Editor/Data/Tools/ScriptUpdater/APIUpdater.NonObsoleteApiUpdaterDetector.exe
[api-updater (non-obsolete-error-filter)] 
----------------------------------
jit/startup time      : 46,8511ms
moved types parse time: 35ms
candidates parse time : 1ms
C# parse time         : 120ms
candidates check time : 36ms
console write time    : 0ms

[api-updater (non-obsolete-error-filter)] 27/04/2022 17:02:24 : Starting C:/Program Files/Unity/Hub/Editor/2020.3.19f1/Editor/Data/Tools/ScriptUpdater/APIUpdater.NonObsoleteApiUpdaterDetector.exe
[api-updater (non-obsolete-error-filter)] 
----------------------------------
jit/startup time      : 62,5081ms
moved types parse time: 34ms
candidates parse time : 1ms
C# parse time         : 123ms
candidates check time : 31ms
console write time    : 0ms

[api-updater (non-obsolete-error-filter)] 27/04/2022 17:03:04 : Starting C:/Program Files/Unity/Hub/Editor/2020.3.19f1/Editor/Data/Tools/ScriptUpdater/APIUpdater.NonObsoleteApiUpdaterDetector.exe
[api-updater (non-obsolete-error-filter)] 
----------------------------------
jit/startup time      : 56,0138ms
moved types parse time: 39ms
candidates parse time : 1ms
C# parse time         : 135ms
candidates check time : 34ms
console write time    : 0ms

[api-updater (non-obsolete-error-filter)] 27/04/2022 17:06:52 : Starting C:/Program Files/Unity/Hub/Editor/2020.3.19f1/Editor/Data/Tools/ScriptUpdater/APIUpdater.NonObsoleteApiUpdaterDetector.exe
[api-updater (non-obsolete-error-filter)] 
----------------------------------
jit/startup time      : 62,4895ms
moved types parse time: 35ms
candidates parse time : 1ms
C# parse time         : 122ms
candidates check time : 31ms
console write time    : 0ms

[api-updater (non-obsolete-error-filter)] 27/04/2022 17:07:26 : Starting C:/Program Files/Unity/Hub/Editor/2020.3.19f1/Editor/Data/Tools/ScriptUpdater/APIUpdater.NonObsoleteApiUpdaterDetector.exe
[api-updater (non-obsolete-error-filter)] 
----------------------------------
jit/startup time      : 62,474ms
moved types parse time: 34ms
candidates parse time : 1ms
C# parse time         : 119ms
candidates check time : 27ms
console write time    : 0ms

